{
	"id": 3,
	"name": "Tyrion",
	"email": "tyrion@test.com",
	"phone": "123412345",
	"city": "Virginia",
	"state": "VA",
	"country": "USA",
	"organization": "Company 3",
	"jobProfile": "Software Developer",
	"additionalInfo": "xxxxxxx"
}
